{
  "assetsByChunkName": {
    "component---src-pages-index-js": [
      "component---src-pages-index-js-aa9570313651ef926b5a.js",
      "component---src-pages-index-js-aa9570313651ef926b5a.js.map"
    ],
    "path---expert-faw-certification": [
      "path---expert-faw-certification-aed0de6e3b61e56744c3.js",
      "path---expert-faw-certification-aed0de6e3b61e56744c3.js.map"
    ],
    "path---": [
      "path----e7bec9f40bd407c4d83e.js",
      "path----e7bec9f40bd407c4d83e.js.map"
    ],
    "component---src-pages-contact-js": [
      "component---src-pages-contact-js-016c324c035e8357fa09.js",
      "component---src-pages-contact-js-016c324c035e8357fa09.js.map"
    ],
    "path---how-to-identify-the-faw-larvae": [
      "path---how-to-identify-the-faw-larvae-7c57e09e301a45e8e15a.js",
      "path---how-to-identify-the-faw-larvae-7c57e09e301a45e8e15a.js.map"
    ],
    "component---node-modules-gatsby-plugin-offline-app-shell-js": [
      "component---node-modules-gatsby-plugin-offline-app-shell-js-5c4c5a0f7af9dc69d6d7.js",
      "component---node-modules-gatsby-plugin-offline-app-shell-js-5c4c5a0f7af9dc69d6d7.js.map"
    ],
    "path---the-distinctive-kinds-of-damage-faw-does-to-maize": [
      "path---the-distinctive-kinds-of-damage-faw-does-to-maize-5037b17f8d971a99bc9d.js",
      "path---the-distinctive-kinds-of-damage-faw-does-to-maize-5037b17f8d971a99bc9d.js.map"
    ],
    "component---src-layouts-index-js": [
      "component---src-layouts-index-js-a1c5319f9e5c869429e7.js",
      "component---src-layouts-index-js-a1c5319f9e5c869429e7.js.map"
    ],
    "path---basic-faw-guide": [
      "path---basic-faw-guide-4ab9a54f4328525d1718.js",
      "path---basic-faw-guide-4ab9a54f4328525d1718.js.map"
    ],
    "path---index": [
      "path---index-206ac74de0d3aab26f03.js",
      "path---index-206ac74de0d3aab26f03.js.map"
    ],
    "component---src-pages-search-js": [
      "component---src-pages-search-js-9b51531dafceece096dd.js",
      "component---src-pages-search-js-9b51531dafceece096dd.js.map"
    ],
    "path---identifying-faw-at-different-lifecycle-stages": [
      "path---identifying-faw-at-different-lifecycle-stages-4df617229649e39f82b2.js",
      "path---identifying-faw-at-different-lifecycle-stages-4df617229649e39f82b2.js.map"
    ],
    "commons": [
      "commons-d2536c49b4c6a3069b41.js",
      "build-js-styles.css",
      "commons-d2536c49b4c6a3069b41.js.map",
      "build-js-styles.css.map"
    ],
    "path---success": [
      "path---success-7780f04b4096d2055341.js",
      "path---success-7780f04b4096d2055341.js.map"
    ],
    "path---contact": [
      "path---contact-a0e39f21c11f6a62c5ab.js",
      "path---contact-a0e39f21c11f6a62c5ab.js.map"
    ],
    "component---src-templates-post-template-js": [
      "component---src-templates-post-template-js-9427e9604194a225a082.js",
      "component---src-templates-post-template-js-9427e9604194a225a082.js.map"
    ],
    "path---scouting-tool-tutorial": [
      "path---scouting-tool-tutorial-f84e9e417f001e07d396.js",
      "path---scouting-tool-tutorial-f84e9e417f001e07d396.js.map"
    ],
    "path---offline-plugin-app-shell-fallback": [
      "path---offline-plugin-app-shell-fallback-a0e39f21c11f6a62c5ab.js",
      "path---offline-plugin-app-shell-fallback-a0e39f21c11f6a62c5ab.js.map"
    ],
    "path---starters": [
      "path---starters-77f99604913264cb19a5.js",
      "path---starters-77f99604913264cb19a5.js.map"
    ],
    "app": [
      "app-11de22f32f82f1dffca3.js",
      "build-js-styles.css",
      "app-11de22f32f82f1dffca3.js.map",
      "build-js-styles.css.map"
    ],
    "component---src-templates-page-template-js": [
      "component---src-templates-page-template-js-e0434750f574a9276ef2.js",
      "component---src-templates-page-template-js-e0434750f574a9276ef2.js.map"
    ],
    "path---which-parts-of-the-plant-to-scout-for-faw-on": [
      "path---which-parts-of-the-plant-to-scout-for-faw-on-726f90219d161c491223.js",
      "path---which-parts-of-the-plant-to-scout-for-faw-on-726f90219d161c491223.js.map"
    ],
    "path---keeping-this-guide-offline": [
      "path---keeping-this-guide-offline-6f2b0170c57d4911d050.js",
      "path---keeping-this-guide-offline-6f2b0170c57d4911d050.js.map"
    ],
    "path---search": [
      "path---search-84269fabafea3eec14cf.js",
      "path---search-84269fabafea3eec14cf.js.map"
    ],
    "path---where-to-look-for-faw-at-different-lifecycle-stages": [
      "path---where-to-look-for-faw-at-different-lifecycle-stages-946b69bda4f7f36ff0bf.js",
      "path---where-to-look-for-faw-at-different-lifecycle-stages-946b69bda4f7f36ff0bf.js.map"
    ],
    "path---about": [
      "path---about-a24517cf1ce5d09329a5.js",
      "path---about-a24517cf1ce5d09329a5.js.map"
    ],
    "path---stages-of-the-maize-cycle": [
      "path---stages-of-the-maize-cycle-3088aafb4fd242dbdb0d.js",
      "path---stages-of-the-maize-cycle-3088aafb4fd242dbdb0d.js.map"
    ]
  }
}